Discriminant Function Analysis for Music Genre Classification
…
70% of the data are used for training while 30% are used for testing. By allocating 70% of the observations to the training set, the DFA has enough data to estimate how each feature varies and how features relate to each other, which is needed to define stable discriminant functions. The 30% is used to evaluate the model’s predictive accuracy on unseen data. This ratio ensures that the testing phase is statistically meaningful, providing enough samples to generate a confusion matrix, without depriving the training step of data needed to capture underlying patterns in the grouped genres. A train/test ratio of 80/20 would have also been ideal.

Standardizing the Predictors

DFA is sensitive to the scale of inputs; variables with larger absolute values can disproportionately influence how the model captures relationships between features, which may mask the contributions of variables on smaller scales. By transforming each predictor to have a mean of zero and a standard deviation of one, we ensure that the model identifies patterns based on the statistical relationship of the features rather than their arbitrary units of measurement. Notably, the scaling parameters were derived from the training set and then applied to the test set to prevent any data leakage.

Standardization is optional in this function. If scale = FALSE, the function returns the original unscaled training and testing data.

Below is an example of how you can call the function:

training_and_test_data<- prepare_data(df_model, "genre_group", 0.7, scale = TRUE, seed = 123)
training_and_test_data

$training_data
# A tibble: 10,500 × 6
     energy acousticness speechiness danceability instrumentalness genre_group  
      <dbl>        <dbl>       <dbl>        <dbl>            <dbl> <fct>        
 1 -0.666        -0.790        1.19         0.672           -0.407 Acoustic & T…
 2 -1.83          1.83         0.127       -0.921           -0.407 Acoustic & T…
 3 -1.07         -0.268       -0.201       -0.809           -0.407 Acoustic & T…
 4 -0.737         0.492       -0.250        0.311           -0.407 Acoustic & T…
 5 -1.91          1.63        -0.522       -1.00            -0.407 Acoustic & T…
 6  0.00979       0.366       -0.617       -0.784           -0.392 Acoustic & T…
 7 -1.05         -0.0658      -0.624        0.367           -0.407 Acoustic & T…
 8 -1.29          1.15        -0.404       -0.529           -0.407 Acoustic & T…
 9 -1.25          1.31        -0.560       -0.492           -0.407 Acoustic & T…
10 -1.56          1.40        -0.633        0.765           -0.407 Acoustic & T…
# ℹ 10,490 more rows

$test_data
# A tibble: 4,500 × 6
   energy acousticness speechiness danceability instrumentalness genre_group    
    <dbl>        <dbl>       <dbl>        <dbl>            <dbl> <fct>          
 1 -2.25        1.77        -0.509      -1.88             -0.407 Acoustic & Tra…
 2 -0.587      -0.0365       0.584       0.746            -0.407 Acoustic & Tra…
 3 -0.733       0.756       -0.423       0.840            -0.407 Acoustic & Tra…
 4 -0.851      -0.0218      -0.500       0.354            -0.407 Acoustic & Tra…
 5 -0.271      -0.298       -0.651      -0.492            -0.407 Acoustic & Tra…
 6 -1.91        1.63        -0.522      -1.00             -0.407 Acoustic & Tra…
 7 -0.693       0.515       -0.676       0.0246           -0.407 Acoustic & Tra…
 8 -0.792      -0.754       -0.480       0.404            -0.407 Acoustic & Tra…
 9 -1.27        1.43        -0.299       0.323            -0.407 Acoustic & Tra…
10 -1.67        1.41        -0.431      -1.69             -0.407 Acoustic & Tra…
# ℹ 4,490 more rows
…
